<?xml version="1.0" encoding="UTF-8"?>
<svg width="23px" height="23px" viewBox="0 0 23 23" version="1.1" xmlns="http://www.w3.org/2000/svg" xmlns:xlink="http://www.w3.org/1999/xlink">
    <!-- Generator: Sketch 53 (72520) - https://sketchapp.com -->
    <title>Combined shape 2034</title>
    <desc>Created with Sketch.</desc>
    <g id="Page-1" stroke="none" stroke-width="1" fill="none" fill-rule="evenodd">
        <g id="menu_v1" transform="translate(-35.000000, -31.000000)" fill="#000000">
            <g id="header" transform="translate(-2.000000, -1.000000)">
                <path d="M48.5136729,42.0996413 L58.601975,32.011425 L59.9887,33.398 L49.9003225,43.4863041 L59.706925,53.293 L58.292925,54.706975 L48.4862656,44.9003506 L39.397975,53.988575 L38.01125,52.601975 L47.0996061,43.5136961 L37.29315,33.707275 L38.70715,32.293025 L48.5136729,42.0996413 Z" id="Combined-shape-2034"></path>
            </g>
        </g>
    </g>
</svg>