<?xml version="1.0" encoding="UTF-8"?>
<svg width="30px" height="18px" viewBox="0 0 30 18" version="1.1" xmlns="http://www.w3.org/2000/svg" xmlns:xlink="http://www.w3.org/1999/xlink">
    <!-- Generator: Sketch 53 (72520) - https://sketchapp.com -->
    <title>Combined shape 1124</title>
    <desc>Created with Sketch.</desc>
    <g id="Page-1" stroke="none" stroke-width="1" fill="none" fill-rule="evenodd">
        <g id="main_v2" transform="translate(-30.000000, -33.000000)" fill="#000000">
            <g id="header" transform="translate(-255.000000, -1.000000)">
                <path d="M285.000065,50.000004 L315.000101,50.000004 L315.000101,52.000023 L285.000065,52.000023 L285.000065,50.000004 Z M285.000065,41.999907 L315.000101,41.999907 L315.000101,43.999926 L285.000065,43.999926 L285.000065,41.999907 Z M285.000065,34.000083 L315.000101,34.000083 L315.000101,36.000123 L285.000065,36.000123 L285.000065,34.000083 Z" id="Combined-shape-1124"></path>
            </g>
        </g>
    </g>
</svg>