<?xml version="1.0" encoding="UTF-8"?>
<svg width="20px" height="23px" viewBox="0 0 20 23" version="1.1" xmlns="http://www.w3.org/2000/svg" xmlns:xlink="http://www.w3.org/1999/xlink">
    <!-- Generator: Sketch 55.2 (78181) - https://sketchapp.com -->
    <title>Combined shape 2040</title>
    <desc>Created with Sketch.</desc>
    <g id="Page-1" stroke="none" stroke-width="1" fill="none" fill-rule="evenodd">
        <g id="menu_v1" transform="translate(-29.000000, -440.000000)" fill="#000000">
            <g id="icons" transform="translate(28.000000, 431.000000)">
                <path d="M10.978858,21.537925 C9.956804,21.537925 9.070732,21.170125 8.345018,20.4426 C6.893216,18.896825 6.758686,16.2847 6.767772,15.232875 L6.767772,15.19155 C6.745222,13.230725 7.24625,11.7507 8.26067,10.799 C9.476874,9.6653 10.921042,9.717925 11.158818,9.735375 C11.396242,9.71765 12.839332,9.663975 14.032986,10.774325 C15.048858,11.7507 15.549512,13.228825 15.526258,15.171675 C15.528062,15.1843 15.69678,18.5846 13.95372,20.41575 C13.260742,21.1567 12.350668,21.534425 11.24827,21.534425 L11.163922,21.534425 C11.101376,21.537125 11.040304,21.537925 10.978858,21.537925 Z M9.383066,19.343525 C9.784104,19.77575 10.29204,19.998575 10.931954,20.01845 L11.34826,20.012275 C11.987074,19.973075 12.493558,19.75185 12.89024,19.340575 C14.087524,18.0807 14.049728,15.516375 14.04172,15.227525 L14.04172,15.19155 C14.06207,13.680375 13.723226,12.5856 13.033482,11.937275 C12.26269,11.201975 11.231176,11.273375 11.219912,11.27445 L11.09119,11.274725 C11.063932,11.27365 10.032066,11.20225 9.262704,11.935925 C8.572982,12.6052 8.233038,13.70025 8.253762,15.187775 L8.253762,15.227525 C8.245028,15.516375 8.206132,18.08205 9.383066,19.343525 Z M19.527178,23.92425 C19.6966,24.06735 20.656856,25.0432 20.321246,28.573425 L20.288532,28.9764 L19.935476,29.1764 C16.870062,30.786075 13.83921,31.157625 11.837276,31.187425 L11.181016,31.187425 L10.482912,31.187425 C8.886042,31.187425 5.713356,30.92595 2.410166,29.179625 L2.050202,28.9764 L2.018214,28.571825 C1.665532,25.135275 2.601038,24.09715 2.791932,23.923175 L2.823568,23.892575 C3.27404,23.52505 3.905242,23.276475 4.123746,23.2201 L4.195378,23.2131 C5.734806,22.790825 7.499316,21.67375 7.747278,21.495775 L7.772732,21.476975 C8.127944,21.244225 8.57989,21.347325 8.804598,21.71215 C8.912574,21.888525 8.949292,22.09525 8.907492,22.29525 C8.864944,22.49525 8.748608,22.6676 8.576986,22.779825 L8.557714,22.791625 C8.549354,22.795925 8.520996,22.814725 8.478096,22.84075 C6.63289,24.00935 5.311592,24.508425 4.528788,24.72105 L4.517524,24.7256 C4.299372,24.80775 3.975774,24.9299 3.783802,25.07515 C3.66454,25.2781 3.298042,26.0687 3.426038,28.051275 C6.310744,29.47975 9.064924,29.69505 10.460736,29.69505 L11.811822,29.69505 C12.92841,29.69505 15.828032,29.533175 18.84762,28.04995 C19.0058,25.95945 18.578208,25.205625 18.493486,25.079175 C18.284442,24.91755 17.936468,24.78575 17.746674,24.714325 C15.89566,24.213375 13.873024,22.902225 13.702854,22.769625 C13.546522,22.6676 13.429064,22.49525 13.387264,22.29525 C13.344364,22.09525 13.38216,21.888525 13.489432,21.71215 C13.599586,21.535775 13.764674,21.413625 13.958824,21.3704 C14.151522,21.32665 14.351502,21.364775 14.522024,21.476975 L14.547478,21.495775 C14.796518,21.67375 16.559928,22.790825 18.09973,23.2131 L18.156094,23.2131 L18.268074,23.255 C18.513132,23.345725 19.085418,23.55835 19.493716,23.892575 L19.527178,23.92425 Z" id="Combined-shape-2040"></path>
            </g>
        </g>
    </g>
</svg>